{
"question1":{
  "question": "Сколько граммов в одном килограмме?",
  "variants": {
    "1": "10",
    "2": "100",
    "3": "1000",
    "4": "10000"
  },
  "answer": 3
},
"question2":{
  "question": "Сколько метров в одном дециметре?",
  "variants": {
    "1": "100",
    "2": "10",
    "3": "0.1",
    "4": "0.01"
  },
  "answer": 3
},
"question3":{
  "question": "Сколько см в одном метре?",
  "variants": {
    "1": "100",
    "2": "1000",
    "3": "10",
    "4": "10000"
  },
  "answer": 1
}
}